question_id|option_id|option
0|0| 1
0|1| 2
0|2| 3
0|3| 4
1|0| Bỏ cuộc 
1|1| Cho tôi qua đi mà 
1|2| Không thể qua 
1|3| Câu này khó quá
2|0| Con chim
2|1| Con rắn 
2|2| Con người
2|3| Con tê giác
3|0| HIV
3|1| Gãy tay
3|2| Siđa
3|3| Bệnh sĩ
4|0| Hà Nội và Long An
4|1| Hà nội và Quảng Ninh
4|2| Thăng Long và Hạ long 
4|3| Quảng Ninh và Long An
5|0| Nướng thịt
5|1| Thái Thị
5|2| Cho con Bú
5|3| Đấu vật
6|0| Ăn Kẹo
6|1| Uống cocacola
6|2| Đá bóng
6|3| Chụp hình
7|0| 1
7|1| 2
7|2| 14
7|3| 15